Data transformation
…
# Combining all the lists to form a data frame
movies <- tibble(Rank = rank_data, 
                 Title = title_data,
                 Description = description_data, 
                 Runtime = runtime_data,
                 Genre = genre_data, 
                 Rating = rating_data,
                 Metascore = metascore_data, 
                 Votes = votes_data,
                 Gross_Earning_in_Mil = gross_data,
                 Director = directors_data, 
                 Actor = actors_data)
movies %>% print(width=Inf)

## # A tibble: 100 x 11
##     Rank Title                           
##    <int> <chr>                           
##  1     1 The Gentlemen                   
##  2     2 Knives Out                      
##  3     3 Joker                           
##  4     4 Avengers: Endgame               
##  5     5 Terminator: Dark Fate           
##  6     6 Parasite                        
##  7     7 Once Upon a Time... in Hollywood
##  8     8 Gemini Man                      
##  9     9 Ford v Ferrari                  
## 10    10 Jojo Rabbit                     
##    Description                                                                  
##    <chr>                                                                        
##  1 An American expat tries to sell off his highly profitable marijuana empire i…
##  2 A detective investigates the death of a patriarch of an eccentric, combative…
##  3 In Gotham City, mentally troubled comedian Arthur Fleck is disregarded and m…
##  4 After the devastating events of Avengers: Infinity War (2018), the universe …
##  5 An augmented human and Sarah Connor must stop an advanced liquid Terminator …
##  6 Greed and class discrimination threaten the newly formed symbiotic relations…
##  7 A faded television actor and his stunt double strive to achieve fame and suc…
##  8 An over-the-hill hitman faces off against a younger clone of himself.        
##  9 American car designer Carroll Shelby and driver Ken Miles battle corporate i…
## 10 A young boy in Hitler's army finds out his mother is hiding a Jewish girl in…
##    Runtime Genre  Rating Metascore  Votes Gross_Earning_in_Mil Director         
##      <dbl> <chr>   <dbl>     <dbl>  <dbl>                <dbl> <chr>            
##  1     113 Action    7.9        51 187017                NA    Guy Ritchie      
##  2     130 Comedy    7.9        82 393132               165.   Rian Johnson     
##  3     122 Crime     8.5        59 871775               335.   Todd Phillips    
##  4     181 Action    8.4        78 765354               858.   Anthony Russo    
##  5     128 Action    6.2        54 135944                62.2  Tim Miller       
##  6     132 Comedy    8.6        96 484512                53.4  Bong Joon Ho     
##  7     161 Comedy    7.6        83 515404               142.   Quentin Tarantino
##  8     117 Action    5.7        38  77821                20.6  Ang Lee          
##  9     152 Action    8.1        81 260835               118.   James Mangold    
## 10     108 Comedy    7.9        58 261982                 0.35 Taika Waititi    
##    Actor              
##    <chr>              
##  1 Matthew McConaughey
##  2 Daniel Craig       
##  3 Joaquin Phoenix    
##  4 Robert Downey Jr.  
##  5 Linda Hamilton     
##  6 Kang-ho Song       
##  7 Leonardo DiCaprio  
##  8 Will Smith         
##  9 Matt Damon         
## 10 Roman Griffin Davis
## # … with 90 more rows
…
